Data Visualisation Part II
…
* 33,442 observations and 12 variables  

* Includes common and uncommon vehicles

---

## The Data Set

```r
library(fueleconomy)
vehicles
```

```
## # A tibble: 33,442 x 12
##       id make  model       year class         trans        drive            cyl displ fuel     hwy   cty
##    <dbl> <chr> <chr>      <dbl> <chr>         <chr>        <chr>          <dbl> <dbl> <chr>  <dbl> <dbl>
##  1 13309 Acura 2.2CL/3.0…  1997 Subcompact C… Automatic 4… Front-Wheel D…     4   2.2 Regul…    26    20
##  2 13310 Acura 2.2CL/3.0…  1997 Subcompact C… Manual 5-spd Front-Wheel D…     4   2.2 Regul…    28    22
##  3 13311 Acura 2.2CL/3.0…  1997 Subcompact C… Automatic 4… Front-Wheel D…     6   3   Regul…    26    18
##  4 14038 Acura 2.3CL/3.0…  1998 Subcompact C… Automatic 4… Front-Wheel D…     4   2.3 Regul…    27    19
##  5 14039 Acura 2.3CL/3.0…  1998 Subcompact C… Manual 5-spd Front-Wheel D…     4   2.3 Regul…    29    21
##  6 14040 Acura 2.3CL/3.0…  1998 Subcompact C… Automatic 4… Front-Wheel D…     6   3   Regul…    26    17
##  7 14834 Acura 2.3CL/3.0…  1999 Subcompact C… Automatic 4… Front-Wheel D…     4   2.3 Regul…    27    20
##  8 14835 Acura 2.3CL/3.0…  1999 Subcompact C… Manual 5-spd Front-Wheel D…     4   2.3 Regul…    29    21
##  9 14836 Acura 2.3CL/3.0…  1999 Subcompact C… Automatic 4… Front-Wheel D…     6   3   Regul…    26    17
## 10 11789 Acura 2.5TL       1995 Compact Cars  Automatic 4… Front-Wheel D…     5   2.5 Premi…    23    18
## # … with 33,432 more rows
```
…
---

## Combine the pipe with `distinct()` to filter for unique rows 

```r
vehicles %>% 
  select(make, model) %>% 
* distinct() %>%
  arrange(make, model)
```

```
## # A tibble: 3,264 x 2
##    make  model      
##    <chr> <chr>      
##  1 Acura 2.2CL/3.0CL
##  2 Acura 2.3CL/3.0CL
##  3 Acura 2.5TL      
##  4 Acura 2.5TL/3.2TL
##  5 Acura 3.2CL      
##  6 Acura 3.2TL      
##  7 Acura 3.5RL      
##  8 Acura ILX        
##  9 Acura ILX Hybrid 
## 10 Acura Integra    
## # … with 3,254 more rows
```
…
---

## Use `group_by()` to use  `summarise()` with subgroups

.scroll-box-12[

```r
vehicles %>% 
  group_by(make) %>% 
* summarise(med_cty = median(cty), ncases = n())
```

```
## # A tibble: 128 x 3
##    make                        med_cty ncases
##    <chr>                         <dbl>  <int>
##  1 Acura                          18      269
##  2 Alfa Romeo                     16       39
##  3 AM General                     14.5      6
##  4 American Motors Corporation    16       27
##  5 ASC Incorporated               14        1
##  6 Aston Martin                   11      112
##  7 Audi                           17      772
##  8 Aurora Cars Ltd                12        1
##  9 Autokraft Limited              14        4
## 10 Azure Dynamics                 62        2
## # … with 118 more rows
```
…
.footnote[
Source: Data Transformation with **dplyr**: CHEAT SHEET
]
---

## But notice `group_by()` does little by itself
.scroll-box-16[

```r
vehicles %>% 
  group_by(make)
```

```
## # A tibble: 33,442 x 12
## # Groups:   make [128]
##       id make  model       year class         trans        drive            cyl displ fuel     hwy   cty
##    <dbl> <chr> <chr>      <dbl> <chr>         <chr>        <chr>          <dbl> <dbl> <chr>  <dbl> <dbl>
##  1 13309 Acura 2.2CL/3.0…  1997 Subcompact C… Automatic 4… Front-Wheel D…     4   2.2 Regul…    26    20
##  2 13310 Acura 2.2CL/3.0…  1997 Subcompact C… Manual 5-spd Front-Wheel D…     4   2.2 Regul…    28    22
##  3 13311 Acura 2.2CL/3.0…  1997 Subcompact C… Automatic 4… Front-Wheel D…     6   3   Regul…    26    18
##  4 14038 Acura 2.3CL/3.0…  1998 Subcompact C… Automatic 4… Front-Wheel D…     4   2.3 Regul…    27    19
##  5 14039 Acura 2.3CL/3.0…  1998 Subcompact C… Manual 5-spd Front-Wheel D…     4   2.3 Regul…    29    21
##  6 14040 Acura 2.3CL/3.0…  1998 Subcompact C… Automatic 4… Front-Wheel D…     6   3   Regul…    26    17
##  7 14834 Acura 2.3CL/3.0…  1999 Subcompact C… Automatic 4… Front-Wheel D…     4   2.3 Regul…    27    20
##  8 14835 Acura 2.3CL/3.0…  1999 Subcompact C… Manual 5-spd Front-Wheel D…     4   2.3 Regul…    29    21
##  9 14836 Acura 2.3CL/3.0…  1999 Subcompact C… Automatic 4… Front-Wheel D…     6   3   Regul…    26    17
## 10 11789 Acura 2.5TL       1995 Compact Cars  Automatic 4… Front-Wheel D…     5   2.5 Premi…    23    18
## # … with 33,432 more rows
```
…
## Can be combined with other verbs using the pipe operator

.scroll-box-16[

```r
vehicles %>%
  filter(year == 2010) %>%
  group_by(make, model) %>% 
  summarise(avg_hwy = mean(hwy)) %>%
  arrange(desc(avg_hwy)) %>% 
* ungroup()
```

```
## # A tibble: 628 x 3
##    make      model             avg_hwy
##    <chr>     <chr>               <dbl>
##  1 Toyota    Prius                  48
##  2 Honda     Civic Hybrid           45
##  3 Honda     Insight                43
##  4 smart     fortwo cabriolet       41
##  5 smart     fortwo coupe           41
##  6 Chevrolet Cobalt XFE Coupe       37
##  7 Chevrolet Cobalt XFE Sedan       37
##  8 Pontiac   G5 XFE                 37
##  9 BMW       335d                   36
## 10 Ford      Fusion Hybrid FWD      36
## # … with 618 more rows
```
…
