Exploratory Data Analysis
…
---

# Frequency table of makes with the most models tested

```r
cardata %>% 
  count(make, sort = TRUE)
```

```
## # A tibble: 42 x 2
##    make           n
##    <chr>      <int>
##  1 Ford        1923
##  2 Chevrolet   1621
##  3 Dodge       1334
##  4 Toyota      1307
##  5 GMC          741
##  6 Nissan       700
##  7 Mitsubishi   617
##  8 Volkswagen   507
##  9 Honda        489
## 10 Audi         364
## # … with 32 more rows
```
…
