Chapter 15 Factors
…
```r
# Note that we don't need a special command for this
ks_data %>% count(Country)
```

```
## # A tibble: 53 x 2
##    Country            n
##  * <fct>          <int>
##  1 Argentina         92
##  2 Australia        421
##  3 Belarus           54
##  4 Belgium           91
##  5 Brazil           465
##  6 Canada           440
##  7 Chile             51
##  8 Colombia         113
##  9 Czech Republic    53
## 10 Denmark           78
## # … with 43 more rows
```
…
